C:\Users\hp\Desktop\quiz-app\src\main\java\Question.java
C:\Users\hp\Desktop\quiz-app\src\test\java\SelectTest.java
C:\Users\hp\Desktop\quiz-app\src\main\java\Quiz.java
C:\Users\hp\Desktop\quiz-app\src\main\java\ZeroException.java
C:\Users\hp\Desktop\quiz-app\src\main\java\Select.java
